<svg xmlns="http://www.w3.org/2000/svg" width="18" height="18" viewBox="0 0 18 18">
  <defs>
    <style>
      .cls-1 {
        fill: #2e6f6f;
        fill-rule: evenodd;
      }
    </style>
  </defs>
  <path class="cls-1" d="M405.236,61.342h-0.474v3.711h0.492a1.045,1.045,0,0,0,1.169-1.261v-1.24A1.014,1.014,0,0,0,405.236,61.342Zm0.95-2.366V58.182c0-1.285-.623-1.2-0.932-1.2h-0.492v3.277h0.474C405.545,60.254,406.186,60.26,406.186,58.976ZM396,52V70h18V52H396Zm9.76,14.113H400.49V65.024h0.949v-8.05H400.49V55.886l5.221,0c1.929,0,3.322.871,3.322,2.251a2.387,2.387,0,0,1-2.329,2.556V60.84c1.367-.021,2.8.855,2.8,2.246C409.508,65.095,408.037,66.112,405.758,66.112Z" transform="translate(-396 -52)"/>
</svg>
