<svg xmlns="http://www.w3.org/2000/svg" width="89" height="30" viewBox="0 0 89 30">
  <defs>
    <style>
      .cls-1 {
        fill: #a8b7b6;
        fill-rule: evenodd;
      }
    </style>
  </defs>
  <path id="Rectangle_566_copy_39" data-name="Rectangle 566 copy 39" class="cls-1" d="M1194,1409h-9a5,5,0,0,1-5-5v-16a5,5,0,0,1,5-5h9a5,5,0,0,1,5,5v16A5,5,0,0,1,1194,1409Zm3-21a3,3,0,0,0-3-3h-9a3,3,0,0,0-3,3v2h15v-2Zm0,4h-15v8h15v-8Zm0,10h-15v2a3,3,0,0,0,3,3h9a3,3,0,0,0,3-3v-2Zm-9.01,2.5,1.51-1.51,1.51,1.51-1.51,1.51Zm0.01-17.72h3a0.5,0.5,0,0,1,.5.5v0.5a0.5,0.5,0,0,1-.5.5h-3a0.5,0.5,0,0,1-.5-0.5v-0.5A0.5,0.5,0,0,1,1188,1386.78Zm31,22.22h-5a5,5,0,0,1-5-5v-13a5,5,0,0,1,5-5h5a5,5,0,0,1,5,5v13A5,5,0,0,1,1219,1409Zm3-18a3,3,0,0,0-3-3h-5a3,3,0,0,0-3,3v9h11v-9Zm0,11h-11v2a3,3,0,0,0,3,3h5a3,3,0,0,0,3-3v-2Zm-7.01,2.5,1.51-1.51,1.51,1.51-1.51,1.51Zm0.01-13.72h3a0.5,0.5,0,0,1,.5.5v0.5a0.5,0.5,0,0,1-.5.5h-3a0.5,0.5,0,0,1-.5-0.5v-0.5A0.5,0.5,0,0,1,1215,1390.78ZM1165,1403h-9v4h4v2h-15v-2h4v-4h-9a5,5,0,0,1-5-5v-14a5,5,0,0,1,5-5h25a5,5,0,0,1,5,5v14A5,5,0,0,1,1165,1403Zm-11,4v-4h-3v4h3Zm14-23a3,3,0,0,0-3-3h-25a3,3,0,0,0-3,3v10h31v-10Zm0,12h-31v2a3,3,0,0,0,3,3h25a3,3,0,0,0,3-3v-2Zm-17.01,2.5,1.51-1.51,1.51,1.51-1.51,1.51Z" transform="translate(-1135 -1379)"/>
</svg>
