<svg xmlns="http://www.w3.org/2000/svg" width="16" height="12" viewBox="0 0 16 12">
  <defs>
    <style>
      .cls-1 {
        fill: #a8b7b6;
        fill-rule: evenodd;
      }
    </style>
  </defs>
  <path id="Rectangle_4_copy_4" data-name="Rectangle 4 copy 4" class="cls-1" d="M332.587,1503.31l7.53-8.31,1.882,1.85L332.587,1507,326,1500.54l1.882-1.85Z" transform="translate(-326 -1495)"/>
</svg>
